…
      $adsl$drop_list$constant$empty
      character(0)
      
      
      $adsl$drop_list$blacklist
      character(0)
      
      $adsl$drop_list$other
      character(0)
      
      
      $adsl$flag_table
      # A tibble: 320 x 2
         SUBJID ITTFL
          <dbl> <chr>
       1  10001 Y    
       2  10002 Y    
       3  10003 Y    
       4  10004 Y    
       5  10005 Y    
       6  10006 Y    
       7  10007 Y    
       8  10008 Y    
       9  10009 Y    
      10  10010 Y    
      # i 310 more rows
…
