…
Maike Ahrens (ahrensmaike), Sebastian Voss (svoss09)

## See also

[`build_adsl()`](https://bayer-group.github.io/bmdi-mlai-martini/reference/build_x.md),
[`build_bds()`](https://bayer-group.github.io/bmdi-mlai-martini/reference/build_x.md),
[`build_occds()`](https://bayer-group.github.io/bmdi-mlai-martini/reference/build_x.md)

## Examples

``` r
feat <- build(martini_spec)
attr(feat, "dict")
#> # A tibble: 26 × 7
#>    param   label                               source type  column spec_id unit 
#>    <chr>   <chr>                               <chr>  <chr> <chr>  <chr>   <chr>
#>  1 .id     Unique Subject Identifier           adsl   adsl  .id    adsl    NA   
#>  2 .trt    Actual Treatment for Period 01      adsl   adsl  .trt   adsl    NA   
#>  3 AGE     Age                                 adsl   adsl  AGE    adsl    NA   
#>  4 SEX     Sex                                 adsl   adsl  SEX    adsl    NA   
#>  5 RACE    Race                                adsl   adsl  RACE   adsl    NA   
#>  6 CALCIUM Calcium (mg/dL) in Serum            adlb   bds   CALCI… adlb    mg/dL
#>  7 CREAT   Creatinine (mg/dL) in Serum         adlb   bds   CREAT  adlb    mg/dL
#>  8 GGT     Gamma Glutamyl Transferase (U/L) i… adlb   bds   GGT    adlb    U/L  
#>  9 HB      Hemoglobin (g/dL) in Blood          adlb   bds   HB     adlb    g/dL 
#> 10 HCT     Hematocrit (%) in Blood - Calculat… adlb   bds   HCT    adlb    %    
#> # ℹ 16 more rows
```
