Prepare ML ready data set from outcome and predictor data — prepare_ml • martini
…
# Extract the prepared data from the ml object
get_data(martini_ml_regr, type = "prep")
#> # A tibble: 289 × 25
#>         .id .trt  SEX   RACE    AGE CALCIUM CREAT   GGT   HCT   HDL   LDL MAGNES
#>       <dbl> <fct> <fct> <fct> <dbl>   <dbl> <dbl> <dbl> <dbl> <dbl> <dbl>  <dbl>
#>  1   1.75e9 TRT   M     WHITE    85    9.45  1.65  4.73  46.0  34.5  73.5   2.28
#>  2   1.75e9 PLC   F     WHITE    90    9.75  1.14  2.80  38.5  65.9  70.4   1.81
#>  3   1.75e9 TRT   F     WHITE    62    8.95  1.28  3.99  34.9  64.7 109.    2.50
#>  4   1.75e9 TRT   F     ASIAN    86    9.63  1.28  3.78  37.2  66.5  94.6   2.00
#>  5   1.75e9 PLC   F     WHITE    76   10.1   1.15  4.02  42.1  53.6  65.8   2.34
#>  6   1.75e9 PLC   M     WHITE    47    9.32  1.18  3.46  47.7  77.2  51.7   2.11
#>  7   1.75e9 TRT   M     WHITE    53    9.25  2.12  4.55  34.3  58.9  70.2   2.38
#>  8   1.75e9 TRT   M     WHITE    75   10.1   1.33  4.63  39.7  21.9  95.8   1.96
#>  9   1.75e9 PLC   F     WHITE    77    9.02  1.44  3.71  42.2  27.4  76.8   2.14
#> 10   1.75e9 PLC   M     BLACK    88    9.28  1.04  2.99  40.9  37.5  74.5   2.00
#> # ℹ 279 more rows
#> # ℹ 13 more variables: POTASS <dbl>, SODIUM <dbl>, URICAC <dbl>, BMI <dbl>,
#> #   BPDIA <dbl>, BPSYS <dbl>, HR <dbl>, WEIGHT <dbl>,
#> #   atrial_fibrillation <fct>, myocardial_infarction <fct>,
#> #   coronary_artery_disease <fct>, ventricular_tachycardia <fct>, .out <dbl>
…
