…
# apply correlation filter without specifying `keep`
rec_prep <- recipes::recipe(~., data = X) %>% 
  step_corr_keep(
    recipes::all_numeric_predictors(),
    threshold = .8
  ) %>% 
  recipes::prep()

recipes::bake(rec_prep, new_data = NULL)
#> # A tibble: 100 × 4
#>        V1      V3      V4      V5
#>     <dbl>   <dbl>   <dbl>   <dbl>
#>  1 -0.519 -1.99   -0.918  -0.905 
#>  2 -1.48  -1.79    0.271   0.126 
#>  3  1.73   0.847   0.928   0.640 
#>  4 -1.10  -1.02   -0.735   1.38  
#>  5  0.512 -0.292  -0.750   1.03  
#>  6 -1.84   1.48    0.269  -0.0911
#>  7 -1.59  -0.0975 -0.340   1.22  
#>  8 -2.34   0.102  -0.508  -0.343 
#>  9 -0.386  0.183   0.0381  0.172 
#> 10  1.06  -0.749   0.573  -1.84  
#> # ℹ 90 more rows

# make sure that "V2" is kept
rec_keep_prep <- recipes::recipe(~., data = X) %>% 
  step_corr_keep(
    recipes::all_numeric_predictors(),
    threshold = .8,
    keep = "V2"
  ) %>% 
  recipes::prep()

recipes::bake(rec_keep_prep, new_data = NULL)
#> # A tibble: 100 × 4
#>        V2      V3      V4      V5
#>     <dbl>   <dbl>   <dbl>   <dbl>
#>  1 -1.61  -1.99   -0.918  -0.905 
#>  2 -1.72  -1.79    0.271   0.126 
#>  3  2.04   0.847   0.928   0.640 
#>  4 -0.932 -1.02   -0.735   1.38  
#>  5  0.345 -0.292  -0.750   1.03  
#>  6 -1.42   1.48    0.269  -0.0911
#>  7 -1.47  -0.0975 -0.340   1.22  
#>  8 -2.38   0.102  -0.508  -0.343 
#>  9 -0.331  0.183   0.0381  0.172 
#> 10  0.743 -0.749   0.573  -1.84  
#> # ℹ 90 more rows
…
